{
  "locked": false,
  "version": 2,
  "targets": {
    ".NETFramework,Version=v4.5.1": {
      "Sentimetro.IRepository/1.0.0": {
        "type": "project",
        "framework": ".NETFramework,Version=v4.5.1"
      }
    },
    ".NETPlatform,Version=v5.4": {
      "Microsoft.CSharp/4.0.1-beta-23516": {
        "type": "package",
        "dependencies": {
          "System.Collections": "4.0.10",
          "System.Diagnostics.Debug": "4.0.10",
          "System.Dynamic.Runtime": "4.0.0",
          "System.Globalization": "4.0.10",
          "System.Linq": "4.0.0",
          "System.Linq.Expressions": "4.0.0",
          "System.ObjectModel": "4.0.10",
          "System.Reflection": "4.0.10",
          "System.Reflection.Extensions": "4.0.0",
          "System.Reflection.Primitives": "4.0.0",
          "System.Reflection.TypeExtensions": "4.0.0",
          "System.Resources.ResourceManager": "4.0.0",
          "System.Runtime": "4.0.20",
          "System.Runtime.Extensions": "4.0.10",
          "System.Runtime.InteropServices": "4.0.20",
          "System.Threading": "4.0.10"
        },
        "compile": {
          "ref/dotnet5.1/Microsoft.CSharp.dll": {}
        },
        "runtime": {
          "lib/dotnet5.4/Microsoft.CSharp.dll": {}
        }
      },
      "Sentimetro.IRepository/1.0.0": {
        "type": "project",
        "framework": ".NETPlatform,Version=v5.4",
        "dependencies": {
          "Microsoft.CSharp": "4.0.1-beta-23516",
          "System.Collections": "4.0.11-beta-23516",
          "System.Linq": "4.0.1-beta-23516",
          "System.Runtime": "4.0.21-beta-23516",
          "System.Threading": "4.0.11-beta-23516"
        }
      },
      "System.Collections/4.0.11-beta-23516": {
        "type": "package",
        "dependencies": {
          "System.Runtime": "4.0.0"
        },
        "compile": {
          "ref/dotnet5.4/System.Collections.dll": {}
        }
      },
      "System.Diagnostics.Debug/4.0.10": {
        "type": "package",
        "dependencies": {
          "System.Runtime": "4.0.0"
        },
        "compile": {
          "ref/dotnet/System.Diagnostics.Debug.dll": {}
        }
      },
      "System.Dynamic.Runtime/4.0.0": {
        "type": "package",
        "dependencies": {
          "System.Linq.Expressions": "4.0.0",
          "System.ObjectModel": "4.0.0",
          "System.Reflection": "4.0.0",
          "System.Runtime": "4.0.0"
        },
        "compile": {
          "ref/dotnet/System.Dynamic.Runtime.dll": {}
        }
      },
      "System.Globalization/4.0.10": {
        "type": "package",
        "dependencies": {
          "System.Runtime": "4.0.0"
        },
        "compile": {
          "ref/dotnet/System.Globalization.dll": {}
        }
      },
      "System.IO/4.0.0": {
        "type": "package",
        "dependencies": {
          "System.Runtime": "4.0.0",
          "System.Text.Encoding": "4.0.0",
          "System.Threading.Tasks": "4.0.0"
        },
        "compile": {
          "ref/dotnet/System.IO.dll": {}
        }
      },
      "System.Linq/4.0.1-beta-23516": {
        "type": "package",
        "dependencies": {
          "System.Collections": "4.0.10",
          "System.Diagnostics.Debug": "4.0.10",
          "System.Resources.ResourceManager": "4.0.0",
          "System.Runtime": "4.0.20",
          "System.Runtime.Extensions": "4.0.10"
        },
        "compile": {
          "ref/dotnet5.1/System.Linq.dll": {}
        },
        "runtime": {
          "lib/dotnet5.4/System.Linq.dll": {}
        }
      },
      "System.Linq.Expressions/4.0.0": {
        "type": "package",
        "dependencies": {
          "System.Reflection": "4.0.0",
          "System.Runtime": "4.0.0"
        },
        "compile": {
          "ref/dotnet/System.Linq.Expressions.dll": {}
        }
      },
      "System.ObjectModel/4.0.10": {
        "type": "package",
        "dependencies": {
          "System.Collections": "4.0.10",
          "System.Diagnostics.Debug": "4.0.10",
          "System.Resources.ResourceManager": "4.0.0",
          "System.Runtime": "4.0.20",
          "System.Threading": "4.0.10"
        },
        "compile": {
          "ref/dotnet/System.ObjectModel.dll": {}
        },
        "runtime": {
          "lib/dotnet/System.ObjectModel.dll": {}
        }
      },
      "System.Reflection/4.0.10": {
        "type": "package",
        "dependencies": {
          "System.IO": "4.0.0",
          "System.Reflection.Primitives": "4.0.0",
          "System.Runtime": "4.0.20"
        },
        "compile": {
          "ref/dotnet/System.Reflection.dll": {}
        }
      },
      "System.Reflection.Extensions/4.0.0": {
        "type": "package",
        "dependencies": {
          "System.Reflection": "4.0.0",
          "System.Runtime": "4.0.0"
        },
        "compile": {
          "ref/dotnet/System.Reflection.Extensions.dll": {}
        }
      },
      "System.Reflection.Primitives/4.0.0": {
        "type": "package",
        "dependencies": {
          "System.Runtime": "4.0.0"
        },
        "compile": {
          "ref/dotnet/System.Reflection.Primitives.dll": {}
        }
      },
      "System.Reflection.TypeExtensions/4.0.0": {
        "type": "package",
        "dependencies": {
          "System.Reflection": "4.0.0",
          "System.Runtime": "4.0.0"
        },
        "compile": {
          "ref/dotnet/System.Reflection.TypeExtensions.dll": {}
        }
      },
      "System.Resources.ResourceManager/4.0.0": {
        "type": "package",
        "dependencies": {
          "System.Globalization": "4.0.0",
          "System.Reflection": "4.0.0",
          "System.Runtime": "4.0.0"
        },
        "compile": {
          "ref/dotnet/System.Resources.ResourceManager.dll": {}
        }
      },
      "System.Runtime/4.0.21-beta-23516": {
        "type": "package",
        "compile": {
          "ref/dotnet5.4/System.Runtime.dll": {}
        }
      },
      "System.Runtime.Extensions/4.0.10": {
        "type": "package",
        "dependencies": {
          "System.Runtime": "4.0.20"
        },
        "compile": {
          "ref/dotnet/System.Runtime.Extensions.dll": {}
        }
      },
      "System.Runtime.Handles/4.0.0": {
        "type": "package",
        "dependencies": {
          "System.Runtime": "4.0.0"
        },
        "compile": {
          "ref/dotnet/System.Runtime.Handles.dll": {}
        }
      },
      "System.Runtime.InteropServices/4.0.20": {
        "type": "package",
        "dependencies": {
          "System.Reflection": "4.0.0",
          "System.Reflection.Primitives": "4.0.0",
          "System.Runtime": "4.0.0",
          "System.Runtime.Handles": "4.0.0"
        },
        "compile": {
          "ref/dotnet/System.Runtime.InteropServices.dll": {}
        }
      },
      "System.Text.Encoding/4.0.0": {
        "type": "package",
        "dependencies": {
          "System.Runtime": "4.0.0"
        },
        "compile": {
          "ref/dotnet/System.Text.Encoding.dll": {}
        }
      },
      "System.Threading/4.0.11-beta-23516": {
        "type": "package",
        "dependencies": {
          "System.Runtime": "4.0.0",
          "System.Threading.Tasks": "4.0.0"
        },
        "compile": {
          "ref/dotnet5.4/System.Threading.dll": {}
        }
      },
      "System.Threading.Tasks/4.0.0": {
        "type": "package",
        "dependencies": {
          "System.Runtime": "4.0.0"
        },
        "compile": {
          "ref/dotnet/System.Threading.Tasks.dll": {}
        }
      }
    },
    ".NETFramework,Version=v4.5.1/win7-x86": {
      "Sentimetro.IRepository/1.0.0": {
        "type": "project",
        "framework": ".NETFramework,Version=v4.5.1"
      }
    },
    ".NETFramework,Version=v4.5.1/win7-x64": {
      "Sentimetro.IRepository/1.0.0": {
        "type": "project",
        "framework": ".NETFramework,Version=v4.5.1"
      }
    },
    ".NETPlatform,Version=v5.4/win7-x86": {
      "Microsoft.CSharp/4.0.1-beta-23516": {
        "type": "package",
        "dependencies": {
          "System.Collections": "4.0.10",
          "System.Diagnostics.Debug": "4.0.10",
          "System.Dynamic.Runtime": "4.0.0",
          "System.Globalization": "4.0.10",
          "System.Linq": "4.0.0",
          "System.Linq.Expressions": "4.0.0",
          "System.ObjectModel": "4.0.10",
          "System.Reflection": "4.0.10",
          "System.Reflection.Extensions": "4.0.0",
          "System.Reflection.Primitives": "4.0.0",
          "System.Reflection.TypeExtensions": "4.0.0",
          "System.Resources.ResourceManager": "4.0.0",
          "System.Runtime": "4.0.20",
          "System.Runtime.Extensions": "4.0.10",
          "System.Runtime.InteropServices": "4.0.20",
          "System.Threading": "4.0.10"
        },
        "compile": {
          "ref/dotnet5.1/Microsoft.CSharp.dll": {}
        },
        "runtime": {
          "lib/dotnet5.4/Microsoft.CSharp.dll": {}
        }
      },
      "runtime.win7.System.Threading/4.0.11-beta-23516": {
        "type": "package",
        "compile": {
          "ref/dotnet/_._": {}
        }
      },
      "Sentimetro.IRepository/1.0.0": {
        "type": "project",
        "framework": ".NETPlatform,Version=v5.4",
        "dependencies": {
          "Microsoft.CSharp": "4.0.1-beta-23516",
          "System.Collections": "4.0.11-beta-23516",
          "System.Linq": "4.0.1-beta-23516",
          "System.Runtime": "4.0.21-beta-23516",
          "System.Threading": "4.0.11-beta-23516"
        }
      },
      "System.Collections/4.0.11-beta-23516": {
        "type": "package",
        "dependencies": {
          "System.Runtime": "4.0.0"
        },
        "compile": {
          "ref/dotnet5.4/System.Collections.dll": {}
        }
      },
      "System.Diagnostics.Debug/4.0.10": {
        "type": "package",
        "dependencies": {
          "System.Runtime": "4.0.0"
        },
        "compile": {
          "ref/dotnet/System.Diagnostics.Debug.dll": {}
        }
      },
      "System.Dynamic.Runtime/4.0.0": {
        "type": "package",
        "dependencies": {
          "System.Linq.Expressions": "4.0.0",
          "System.ObjectModel": "4.0.0",
          "System.Reflection": "4.0.0",
          "System.Runtime": "4.0.0"
        },
        "compile": {
          "ref/dotnet/System.Dynamic.Runtime.dll": {}
        }
      },
      "System.Globalization/4.0.10": {
        "type": "package",
        "dependencies": {
          "System.Runtime": "4.0.0"
        },
        "compile": {
          "ref/dotnet/System.Globalization.dll": {}
        }
      },
      "System.IO/4.0.0": {
        "type": "package",
        "dependencies": {
          "System.Runtime": "4.0.0",
          "System.Text.Encoding": "4.0.0",
          "System.Threading.Tasks": "4.0.0"
        },
        "compile": {
          "ref/dotnet/System.IO.dll": {}
        }
      },
      "System.Linq/4.0.1-beta-23516": {
        "type": "package",
        "dependencies": {
          "System.Collections": "4.0.10",
          "System.Diagnostics.Debug": "4.0.10",
          "System.Resources.ResourceManager": "4.0.0",
          "System.Runtime": "4.0.20",
          "System.Runtime.Extensions": "4.0.10"
        },
        "compile": {
          "ref/dotnet5.1/System.Linq.dll": {}
        },
        "runtime": {
          "lib/dotnet5.4/System.Linq.dll": {}
        }
      },
      "System.Linq.Expressions/4.0.0": {
        "type": "package",
        "dependencies": {
          "System.Reflection": "4.0.0",
          "System.Runtime": "4.0.0"
        },
        "compile": {
          "ref/dotnet/System.Linq.Expressions.dll": {}
        }
      },
      "System.ObjectModel/4.0.10": {
        "type": "package",
        "dependencies": {
          "System.Collections": "4.0.10",
          "System.Diagnostics.Debug": "4.0.10",
          "System.Resources.ResourceManager": "4.0.0",
          "System.Runtime": "4.0.20",
          "System.Threading": "4.0.10"
        },
        "compile": {
          "ref/dotnet/System.ObjectModel.dll": {}
        },
        "runtime": {
          "lib/dotnet/System.ObjectModel.dll": {}
        }
      },
      "System.Reflection/4.0.10": {
        "type": "package",
        "dependencies": {
          "System.IO": "4.0.0",
          "System.Reflection.Primitives": "4.0.0",
          "System.Runtime": "4.0.20"
        },
        "compile": {
          "ref/dotnet/System.Reflection.dll": {}
        }
      },
      "System.Reflection.Extensions/4.0.0": {
        "type": "package",
        "dependencies": {
          "System.Reflection": "4.0.0",
          "System.Runtime": "4.0.0"
        },
        "compile": {
          "ref/dotnet/System.Reflection.Extensions.dll": {}
        }
      },
      "System.Reflection.Primitives/4.0.0": {
        "type": "package",
        "dependencies": {
          "System.Runtime": "4.0.0"
        },
        "compile": {
          "ref/dotnet/System.Reflection.Primitives.dll": {}
        }
      },
      "System.Reflection.TypeExtensions/4.0.0": {
        "type": "package",
        "dependencies": {
          "System.Reflection": "4.0.0",
          "System.Runtime": "4.0.0"
        },
        "compile": {
          "ref/dotnet/System.Reflection.TypeExtensions.dll": {}
        }
      },
      "System.Resources.ResourceManager/4.0.0": {
        "type": "package",
        "dependencies": {
          "System.Globalization": "4.0.0",
          "System.Reflection": "4.0.0",
          "System.Runtime": "4.0.0"
        },
        "compile": {
          "ref/dotnet/System.Resources.ResourceManager.dll": {}
        }
      },
      "System.Runtime/4.0.21-beta-23516": {
        "type": "package",
        "compile": {
          "ref/dotnet5.4/System.Runtime.dll": {}
        }
      },
      "System.Runtime.Extensions/4.0.10": {
        "type": "package",
        "dependencies": {
          "System.Runtime": "4.0.20"
        },
        "compile": {
          "ref/dotnet/System.Runtime.Extensions.dll": {}
        }
      },
      "System.Runtime.Handles/4.0.0": {
        "type": "package",
        "dependencies": {
          "System.Runtime": "4.0.0"
        },
        "compile": {
          "ref/dotnet/System.Runtime.Handles.dll": {}
        }
      },
      "System.Runtime.InteropServices/4.0.20": {
        "type": "package",
        "dependencies": {
          "System.Reflection": "4.0.0",
          "System.Reflection.Primitives": "4.0.0",
          "System.Runtime": "4.0.0",
          "System.Runtime.Handles": "4.0.0"
        },
        "compile": {
          "ref/dotnet/System.Runtime.InteropServices.dll": {}
        }
      },
      "System.Text.Encoding/4.0.0": {
        "type": "package",
        "dependencies": {
          "System.Runtime": "4.0.0"
        },
        "compile": {
          "ref/dotnet/System.Text.Encoding.dll": {}
        }
      },
      "System.Threading/4.0.11-beta-23516": {
        "type": "package",
        "dependencies": {
          "System.Runtime": "4.0.0",
          "System.Threading.Tasks": "4.0.0"
        },
        "compile": {
          "ref/dotnet5.4/System.Threading.dll": {}
        }
      },
      "System.Threading.Tasks/4.0.0": {
        "type": "package",
        "dependencies": {
          "System.Runtime": "4.0.0"
        },
        "compile": {
          "ref/dotnet/System.Threading.Tasks.dll": {}
        }
      }
    },
    ".NETPlatform,Version=v5.4/win7-x64": {
      "Microsoft.CSharp/4.0.1-beta-23516": {
        "type": "package",
        "dependencies": {
          "System.Collections": "4.0.10",
          "System.Diagnostics.Debug": "4.0.10",
          "System.Dynamic.Runtime": "4.0.0",
          "System.Globalization": "4.0.10",
          "System.Linq": "4.0.0",
          "System.Linq.Expressions": "4.0.0",
          "System.ObjectModel": "4.0.10",
          "System.Reflection": "4.0.10",
          "System.Reflection.Extensions": "4.0.0",
          "System.Reflection.Primitives": "4.0.0",
          "System.Reflection.TypeExtensions": "4.0.0",
          "System.Resources.ResourceManager": "4.0.0",
          "System.Runtime": "4.0.20",
          "System.Runtime.Extensions": "4.0.10",
          "System.Runtime.InteropServices": "4.0.20",
          "System.Threading": "4.0.10"
        },
        "compile": {
          "ref/dotnet5.1/Microsoft.CSharp.dll": {}
        },
        "runtime": {
          "lib/dotnet5.4/Microsoft.CSharp.dll": {}
        }
      },
      "runtime.win7.System.Threading/4.0.11-beta-23516": {
        "type": "package",
        "compile": {
          "ref/dotnet/_._": {}
        }
      },
      "Sentimetro.IRepository/1.0.0": {
        "type": "project",
        "framework": ".NETPlatform,Version=v5.4",
        "dependencies": {
          "Microsoft.CSharp": "4.0.1-beta-23516",
          "System.Collections": "4.0.11-beta-23516",
          "System.Linq": "4.0.1-beta-23516",
          "System.Runtime": "4.0.21-beta-23516",
          "System.Threading": "4.0.11-beta-23516"
        }
      },
      "System.Collections/4.0.11-beta-23516": {
        "type": "package",
        "dependencies": {
          "System.Runtime": "4.0.0"
        },
        "compile": {
          "ref/dotnet5.4/System.Collections.dll": {}
        }
      },
      "System.Diagnostics.Debug/4.0.10": {
        "type": "package",
        "dependencies": {
          "System.Runtime": "4.0.0"
        },
        "compile": {
          "ref/dotnet/System.Diagnostics.Debug.dll": {}
        }
      },
      "System.Dynamic.Runtime/4.0.0": {
        "type": "package",
        "dependencies": {
          "System.Linq.Expressions": "4.0.0",
          "System.ObjectModel": "4.0.0",
          "System.Reflection": "4.0.0",
          "System.Runtime": "4.0.0"
        },
        "compile": {
          "ref/dotnet/System.Dynamic.Runtime.dll": {}
        }
      },
      "System.Globalization/4.0.10": {
        "type": "package",
        "dependencies": {
          "System.Runtime": "4.0.0"
        },
        "compile": {
          "ref/dotnet/System.Globalization.dll": {}
        }
      },
      "System.IO/4.0.0": {
        "type": "package",
        "dependencies": {
          "System.Runtime": "4.0.0",
          "System.Text.Encoding": "4.0.0",
          "System.Threading.Tasks": "4.0.0"
        },
        "compile": {
          "ref/dotnet/System.IO.dll": {}
        }
      },
      "System.Linq/4.0.1-beta-23516": {
        "type": "package",
        "dependencies": {
          "System.Collections": "4.0.10",
          "System.Diagnostics.Debug": "4.0.10",
          "System.Resources.ResourceManager": "4.0.0",
          "System.Runtime": "4.0.20",
          "System.Runtime.Extensions": "4.0.10"
        },
        "compile": {
          "ref/dotnet5.1/System.Linq.dll": {}
        },
        "runtime": {
          "lib/dotnet5.4/System.Linq.dll": {}
        }
      },
      "System.Linq.Expressions/4.0.0": {
        "type": "package",
        "dependencies": {
          "System.Reflection": "4.0.0",
          "System.Runtime": "4.0.0"
        },
        "compile": {
          "ref/dotnet/System.Linq.Expressions.dll": {}
        }
      },
      "System.ObjectModel/4.0.10": {
        "type": "package",
        "dependencies": {
          "System.Collections": "4.0.10",
          "System.Diagnostics.Debug": "4.0.10",
          "System.Resources.ResourceManager": "4.0.0",
          "System.Runtime": "4.0.20",
          "System.Threading": "4.0.10"
        },
        "compile": {
          "ref/dotnet/System.ObjectModel.dll": {}
        },
        "runtime": {
          "lib/dotnet/System.ObjectModel.dll": {}
        }
      },
      "System.Reflection/4.0.10": {
        "type": "package",
        "dependencies": {
          "System.IO": "4.0.0",
          "System.Reflection.Primitives": "4.0.0",
          "System.Runtime": "4.0.20"
        },
        "compile": {
          "ref/dotnet/System.Reflection.dll": {}
        }
      },
      "System.Reflection.Extensions/4.0.0": {
        "type": "package",
        "dependencies": {
          "System.Reflection": "4.0.0",
          "System.Runtime": "4.0.0"
        },
        "compile": {
          "ref/dotnet/System.Reflection.Extensions.dll": {}
        }
      },
      "System.Reflection.Primitives/4.0.0": {
        "type": "package",
        "dependencies": {
          "System.Runtime": "4.0.0"
        },
        "compile": {
          "ref/dotnet/System.Reflection.Primitives.dll": {}
        }
      },
      "System.Reflection.TypeExtensions/4.0.0": {
        "type": "package",
        "dependencies": {
          "System.Reflection": "4.0.0",
          "System.Runtime": "4.0.0"
        },
        "compile": {
          "ref/dotnet/System.Reflection.TypeExtensions.dll": {}
        }
      },
      "System.Resources.ResourceManager/4.0.0": {
        "type": "package",
        "dependencies": {
          "System.Globalization": "4.0.0",
          "System.Reflection": "4.0.0",
          "System.Runtime": "4.0.0"
        },
        "compile": {
          "ref/dotnet/System.Resources.ResourceManager.dll": {}
        }
      },
      "System.Runtime/4.0.21-beta-23516": {
        "type": "package",
        "compile": {
          "ref/dotnet5.4/System.Runtime.dll": {}
        }
      },
      "System.Runtime.Extensions/4.0.10": {
        "type": "package",
        "dependencies": {
          "System.Runtime": "4.0.20"
        },
        "compile": {
          "ref/dotnet/System.Runtime.Extensions.dll": {}
        }
      },
      "System.Runtime.Handles/4.0.0": {
        "type": "package",
        "dependencies": {
          "System.Runtime": "4.0.0"
        },
        "compile": {
          "ref/dotnet/System.Runtime.Handles.dll": {}
        }
      },
      "System.Runtime.InteropServices/4.0.20": {
        "type": "package",
        "dependencies": {
          "System.Reflection": "4.0.0",
          "System.Reflection.Primitives": "4.0.0",
          "System.Runtime": "4.0.0",
          "System.Runtime.Handles": "4.0.0"
        },
        "compile": {
          "ref/dotnet/System.Runtime.InteropServices.dll": {}
        }
      },
      "System.Text.Encoding/4.0.0": {
        "type": "package",
        "dependencies": {
          "System.Runtime": "4.0.0"
        },
        "compile": {
          "ref/dotnet/System.Text.Encoding.dll": {}
        }
      },
      "System.Threading/4.0.11-beta-23516": {
        "type": "package",
        "dependencies": {
          "System.Runtime": "4.0.0",
          "System.Threading.Tasks": "4.0.0"
        },
        "compile": {
          "ref/dotnet5.4/System.Threading.dll": {}
        }
      },
      "System.Threading.Tasks/4.0.0": {
        "type": "package",
        "dependencies": {
          "System.Runtime": "4.0.0"
        },
        "compile": {
          "ref/dotnet/System.Threading.Tasks.dll": {}
        }
      }
    }
  },
  "libraries": {
    "Sentimetro.IRepository/1.0.0": {
      "type": "project",
      "path": "../Sentimetro.IRepository/project.json"
    },
    "Microsoft.CSharp/4.0.1-beta-23516": {
      "type": "package",
      "serviceable": true,
      "sha512": "z/W5YaTGVQ8WX6TQDW8cCBAe2rBhHOD7NZHxLAnBIMoLWMI/upWDi+dxHYMDDWmGOM7a3di6evem2OzOdaB1fQ==",
      "files": [
        "lib/dotnet5.4/Microsoft.CSharp.dll",
        "lib/MonoAndroid10/_._",
        "lib/MonoTouch10/_._",
        "lib/net45/_._",
        "lib/netcore50/Microsoft.CSharp.dll",
        "lib/win8/_._",
        "lib/wp80/_._",
        "lib/wpa81/_._",
        "lib/xamarinios10/_._",
        "lib/xamarinmac20/_._",
        "Microsoft.CSharp.4.0.1-beta-23516.nupkg",
        "Microsoft.CSharp.4.0.1-beta-23516.nupkg.sha512",
        "Microsoft.CSharp.nuspec",
        "ref/dotnet5.1/de/Microsoft.CSharp.xml",
        "ref/dotnet5.1/es/Microsoft.CSharp.xml",
        "ref/dotnet5.1/fr/Microsoft.CSharp.xml",
        "ref/dotnet5.1/it/Microsoft.CSharp.xml",
        "ref/dotnet5.1/ja/Microsoft.CSharp.xml",
        "ref/dotnet5.1/ko/Microsoft.CSharp.xml",
        "ref/dotnet5.1/Microsoft.CSharp.dll",
        "ref/dotnet5.1/Microsoft.CSharp.xml",
        "ref/dotnet5.1/ru/Microsoft.CSharp.xml",
        "ref/dotnet5.1/zh-hans/Microsoft.CSharp.xml",
        "ref/dotnet5.1/zh-hant/Microsoft.CSharp.xml",
        "ref/MonoAndroid10/_._",
        "ref/MonoTouch10/_._",
        "ref/net45/_._",
        "ref/netcore50/de/Microsoft.CSharp.xml",
        "ref/netcore50/es/Microsoft.CSharp.xml",
        "ref/netcore50/fr/Microsoft.CSharp.xml",
        "ref/netcore50/it/Microsoft.CSharp.xml",
        "ref/netcore50/ja/Microsoft.CSharp.xml",
        "ref/netcore50/ko/Microsoft.CSharp.xml",
        "ref/netcore50/Microsoft.CSharp.dll",
        "ref/netcore50/Microsoft.CSharp.xml",
        "ref/netcore50/ru/Microsoft.CSharp.xml",
        "ref/netcore50/zh-hans/Microsoft.CSharp.xml",
        "ref/netcore50/zh-hant/Microsoft.CSharp.xml",
        "ref/win8/_._",
        "ref/wp80/_._",
        "ref/wpa81/_._",
        "ref/xamarinios10/_._",
        "ref/xamarinmac20/_._"
      ]
    },
    "runtime.win7.System.Threading/4.0.11-beta-23516": {
      "type": "package",
      "serviceable": true,
      "sha512": "kKQ9uUB1g3S9eyK5njdwh5LO0HxJ9CN6cF9dXtp7uzdZvh2UoTgAZ0Jf+/TvzWcUsfcKIPQUGPPLOBLaQpXASg==",
      "files": [
        "ref/dotnet/_._",
        "runtime.win7.System.Threading.4.0.11-beta-23516.nupkg",
        "runtime.win7.System.Threading.4.0.11-beta-23516.nupkg.sha512",
        "runtime.win7.System.Threading.nuspec",
        "runtimes/win7/lib/DNXCore50/System.Threading.dll",
        "runtimes/win7/lib/netcore50/System.Threading.dll",
        "runtimes/win8-aot/lib/netcore50/System.Threading.dll"
      ]
    },
    "System.Collections/4.0.11-beta-23516": {
      "type": "package",
      "serviceable": true,
      "sha512": "FSd5zsGfmG2pidC3CVizQPNGTK1Q3A2HEuRqwUPLU/AArjELLC5p4l6XIAlJ9ZBPdbp6V8vFQAxUHzkFfyVkYA==",
      "files": [
        "lib/DNXCore50/System.Collections.dll",
        "lib/MonoAndroid10/_._",
        "lib/MonoTouch10/_._",
        "lib/net45/_._",
        "lib/netcore50/System.Collections.dll",
        "lib/win8/_._",
        "lib/wp80/_._",
        "lib/wpa81/_._",
        "lib/xamarinios10/_._",
        "lib/xamarinmac20/_._",
        "ref/dotnet5.1/de/System.Collections.xml",
        "ref/dotnet5.1/es/System.Collections.xml",
        "ref/dotnet5.1/fr/System.Collections.xml",
        "ref/dotnet5.1/it/System.Collections.xml",
        "ref/dotnet5.1/ja/System.Collections.xml",
        "ref/dotnet5.1/ko/System.Collections.xml",
        "ref/dotnet5.1/ru/System.Collections.xml",
        "ref/dotnet5.1/System.Collections.dll",
        "ref/dotnet5.1/System.Collections.xml",
        "ref/dotnet5.1/zh-hans/System.Collections.xml",
        "ref/dotnet5.1/zh-hant/System.Collections.xml",
        "ref/dotnet5.4/de/System.Collections.xml",
        "ref/dotnet5.4/es/System.Collections.xml",
        "ref/dotnet5.4/fr/System.Collections.xml",
        "ref/dotnet5.4/it/System.Collections.xml",
        "ref/dotnet5.4/ja/System.Collections.xml",
        "ref/dotnet5.4/ko/System.Collections.xml",
        "ref/dotnet5.4/ru/System.Collections.xml",
        "ref/dotnet5.4/System.Collections.dll",
        "ref/dotnet5.4/System.Collections.xml",
        "ref/dotnet5.4/zh-hans/System.Collections.xml",
        "ref/dotnet5.4/zh-hant/System.Collections.xml",
        "ref/MonoAndroid10/_._",
        "ref/MonoTouch10/_._",
        "ref/net45/_._",
        "ref/netcore50/de/System.Collections.xml",
        "ref/netcore50/es/System.Collections.xml",
        "ref/netcore50/fr/System.Collections.xml",
        "ref/netcore50/it/System.Collections.xml",
        "ref/netcore50/ja/System.Collections.xml",
        "ref/netcore50/ko/System.Collections.xml",
        "ref/netcore50/ru/System.Collections.xml",
        "ref/netcore50/System.Collections.dll",
        "ref/netcore50/System.Collections.xml",
        "ref/netcore50/zh-hans/System.Collections.xml",
        "ref/netcore50/zh-hant/System.Collections.xml",
        "ref/win8/_._",
        "ref/wp80/_._",
        "ref/wpa81/_._",
        "ref/xamarinios10/_._",
        "ref/xamarinmac20/_._",
        "runtimes/win8-aot/lib/netcore50/System.Collections.dll",
        "System.Collections.4.0.11-beta-23516.nupkg",
        "System.Collections.4.0.11-beta-23516.nupkg.sha512",
        "System.Collections.nuspec"
      ]
    },
    "System.Diagnostics.Debug/4.0.10": {
      "type": "package",
      "serviceable": true,
      "sha512": "pi2KthuvI2LWV2c2V+fwReDsDiKpNl040h6DcwFOb59SafsPT/V1fCy0z66OKwysurJkBMmp5j5CBe3Um+ub0g==",
      "files": [
        "lib/DNXCore50/System.Diagnostics.Debug.dll",
        "lib/MonoAndroid10/_._",
        "lib/MonoTouch10/_._",
        "lib/net46/_._",
        "lib/netcore50/System.Diagnostics.Debug.dll",
        "lib/xamarinios10/_._",
        "lib/xamarinmac20/_._",
        "ref/dotnet/de/System.Diagnostics.Debug.xml",
        "ref/dotnet/es/System.Diagnostics.Debug.xml",
        "ref/dotnet/fr/System.Diagnostics.Debug.xml",
        "ref/dotnet/it/System.Diagnostics.Debug.xml",
        "ref/dotnet/ja/System.Diagnostics.Debug.xml",
        "ref/dotnet/ko/System.Diagnostics.Debug.xml",
        "ref/dotnet/ru/System.Diagnostics.Debug.xml",
        "ref/dotnet/System.Diagnostics.Debug.dll",
        "ref/dotnet/System.Diagnostics.Debug.xml",
        "ref/dotnet/zh-hans/System.Diagnostics.Debug.xml",
        "ref/dotnet/zh-hant/System.Diagnostics.Debug.xml",
        "ref/MonoAndroid10/_._",
        "ref/MonoTouch10/_._",
        "ref/net46/_._",
        "ref/xamarinios10/_._",
        "ref/xamarinmac20/_._",
        "runtimes/win8-aot/lib/netcore50/System.Diagnostics.Debug.dll",
        "System.Diagnostics.Debug.4.0.10.nupkg",
        "System.Diagnostics.Debug.4.0.10.nupkg.sha512",
        "System.Diagnostics.Debug.nuspec"
      ]
    },
    "System.Dynamic.Runtime/4.0.0": {
      "type": "package",
      "sha512": "33os71rQUCLjM5pbhQqCopq9/YcqBHPBQ8WylrzNk3oJmfAR0SFwzZIKJRN2JcrkBYdzC/NtWrYVU8oroyZieA==",
      "files": [
        "lib/MonoAndroid10/_._",
        "lib/MonoTouch10/_._",
        "lib/net45/_._",
        "lib/win8/_._",
        "lib/wp80/_._",
        "lib/wpa81/_._",
        "lib/xamarinios10/_._",
        "lib/xamarinmac20/_._",
        "License.rtf",
        "ref/dotnet/de/System.Dynamic.Runtime.xml",
        "ref/dotnet/es/System.Dynamic.Runtime.xml",
        "ref/dotnet/fr/System.Dynamic.Runtime.xml",
        "ref/dotnet/it/System.Dynamic.Runtime.xml",
        "ref/dotnet/ja/System.Dynamic.Runtime.xml",
        "ref/dotnet/ko/System.Dynamic.Runtime.xml",
        "ref/dotnet/ru/System.Dynamic.Runtime.xml",
        "ref/dotnet/System.Dynamic.Runtime.dll",
        "ref/dotnet/System.Dynamic.Runtime.xml",
        "ref/dotnet/zh-hans/System.Dynamic.Runtime.xml",
        "ref/dotnet/zh-hant/System.Dynamic.Runtime.xml",
        "ref/MonoAndroid10/_._",
        "ref/MonoTouch10/_._",
        "ref/net45/_._",
        "ref/netcore50/de/System.Dynamic.Runtime.xml",
        "ref/netcore50/es/System.Dynamic.Runtime.xml",
        "ref/netcore50/fr/System.Dynamic.Runtime.xml",
        "ref/netcore50/it/System.Dynamic.Runtime.xml",
        "ref/netcore50/ja/System.Dynamic.Runtime.xml",
        "ref/netcore50/ko/System.Dynamic.Runtime.xml",
        "ref/netcore50/ru/System.Dynamic.Runtime.xml",
        "ref/netcore50/System.Dynamic.Runtime.dll",
        "ref/netcore50/System.Dynamic.Runtime.xml",
        "ref/netcore50/zh-hans/System.Dynamic.Runtime.xml",
        "ref/netcore50/zh-hant/System.Dynamic.Runtime.xml",
        "ref/win8/_._",
        "ref/wp80/_._",
        "ref/wpa81/_._",
        "ref/xamarinios10/_._",
        "ref/xamarinmac20/_._",
        "System.Dynamic.Runtime.4.0.0.nupkg",
        "System.Dynamic.Runtime.4.0.0.nupkg.sha512",
        "System.Dynamic.Runtime.nuspec"
      ]
    },
    "System.Globalization/4.0.10": {
      "type": "package",
      "sha512": "kzRtbbCNAxdafFBDogcM36ehA3th8c1PGiz8QRkZn8O5yMBorDHSK8/TGJPYOaCS5zdsGk0u9qXHnW91nqy7fw==",
      "files": [
        "lib/DNXCore50/System.Globalization.dll",
        "lib/MonoAndroid10/_._",
        "lib/MonoTouch10/_._",
        "lib/net46/_._",
        "lib/netcore50/System.Globalization.dll",
        "lib/xamarinios10/_._",
        "lib/xamarinmac20/_._",
        "ref/dotnet/de/System.Globalization.xml",
        "ref/dotnet/es/System.Globalization.xml",
        "ref/dotnet/fr/System.Globalization.xml",
        "ref/dotnet/it/System.Globalization.xml",
        "ref/dotnet/ja/System.Globalization.xml",
        "ref/dotnet/ko/System.Globalization.xml",
        "ref/dotnet/ru/System.Globalization.xml",
        "ref/dotnet/System.Globalization.dll",
        "ref/dotnet/System.Globalization.xml",
        "ref/dotnet/zh-hans/System.Globalization.xml",
        "ref/dotnet/zh-hant/System.Globalization.xml",
        "ref/MonoAndroid10/_._",
        "ref/MonoTouch10/_._",
        "ref/net46/_._",
        "ref/xamarinios10/_._",
        "ref/xamarinmac20/_._",
        "runtimes/win8-aot/lib/netcore50/System.Globalization.dll",
        "System.Globalization.4.0.10.nupkg",
        "System.Globalization.4.0.10.nupkg.sha512",
        "System.Globalization.nuspec"
      ]
    },
    "System.IO/4.0.0": {
      "type": "package",
      "sha512": "MoCHQ0u5n0OMwUS8OX4Gl48qKiQziSW5cXvt82d+MmAcsLq9OL90+ihnu/aJ1h6OOYcBswrZAEuApfZha9w2lg==",
      "files": [
        "lib/MonoAndroid10/_._",
        "lib/MonoTouch10/_._",
        "lib/net45/_._",
        "lib/win8/_._",
        "lib/wp80/_._",
        "lib/wpa81/_._",
        "lib/xamarinios10/_._",
        "lib/xamarinmac20/_._",
        "License.rtf",
        "ref/dotnet/de/System.IO.xml",
        "ref/dotnet/es/System.IO.xml",
        "ref/dotnet/fr/System.IO.xml",
        "ref/dotnet/it/System.IO.xml",
        "ref/dotnet/ja/System.IO.xml",
        "ref/dotnet/ko/System.IO.xml",
        "ref/dotnet/ru/System.IO.xml",
        "ref/dotnet/System.IO.dll",
        "ref/dotnet/System.IO.xml",
        "ref/dotnet/zh-hans/System.IO.xml",
        "ref/dotnet/zh-hant/System.IO.xml",
        "ref/MonoAndroid10/_._",
        "ref/MonoTouch10/_._",
        "ref/net45/_._",
        "ref/netcore50/de/System.IO.xml",
        "ref/netcore50/es/System.IO.xml",
        "ref/netcore50/fr/System.IO.xml",
        "ref/netcore50/it/System.IO.xml",
        "ref/netcore50/ja/System.IO.xml",
        "ref/netcore50/ko/System.IO.xml",
        "ref/netcore50/ru/System.IO.xml",
        "ref/netcore50/System.IO.dll",
        "ref/netcore50/System.IO.xml",
        "ref/netcore50/zh-hans/System.IO.xml",
        "ref/netcore50/zh-hant/System.IO.xml",
        "ref/win8/_._",
        "ref/wp80/_._",
        "ref/wpa81/_._",
        "ref/xamarinios10/_._",
        "ref/xamarinmac20/_._",
        "System.IO.4.0.0.nupkg",
        "System.IO.4.0.0.nupkg.sha512",
        "System.IO.nuspec"
      ]
    },
    "System.Linq/4.0.1-beta-23516": {
      "type": "package",
      "serviceable": true,
      "sha512": "AJaoyeAHLpurbTWnmvOhK/QC2sswKJrIA5RlPea+UdfXpHOw3srPNEPpseZDMV/EviVqAwUfFNkc5QxpGZtsLA==",
      "files": [
        "lib/dotnet5.4/System.Linq.dll",
        "lib/net45/_._",
        "lib/netcore50/System.Linq.dll",
        "lib/win8/_._",
        "lib/wp80/_._",
        "lib/wpa81/_._",
        "ref/dotnet5.1/de/System.Linq.xml",
        "ref/dotnet5.1/es/System.Linq.xml",
        "ref/dotnet5.1/fr/System.Linq.xml",
        "ref/dotnet5.1/it/System.Linq.xml",
        "ref/dotnet5.1/ja/System.Linq.xml",
        "ref/dotnet5.1/ko/System.Linq.xml",
        "ref/dotnet5.1/ru/System.Linq.xml",
        "ref/dotnet5.1/System.Linq.dll",
        "ref/dotnet5.1/System.Linq.xml",
        "ref/dotnet5.1/zh-hans/System.Linq.xml",
        "ref/dotnet5.1/zh-hant/System.Linq.xml",
        "ref/net45/_._",
        "ref/netcore50/de/System.Linq.xml",
        "ref/netcore50/es/System.Linq.xml",
        "ref/netcore50/fr/System.Linq.xml",
        "ref/netcore50/it/System.Linq.xml",
        "ref/netcore50/ja/System.Linq.xml",
        "ref/netcore50/ko/System.Linq.xml",
        "ref/netcore50/ru/System.Linq.xml",
        "ref/netcore50/System.Linq.dll",
        "ref/netcore50/System.Linq.xml",
        "ref/netcore50/zh-hans/System.Linq.xml",
        "ref/netcore50/zh-hant/System.Linq.xml",
        "ref/win8/_._",
        "ref/wp80/_._",
        "ref/wpa81/_._",
        "System.Linq.4.0.1-beta-23516.nupkg",
        "System.Linq.4.0.1-beta-23516.nupkg.sha512",
        "System.Linq.nuspec"
      ]
    },
    "System.Linq.Expressions/4.0.0": {
      "type": "package",
      "sha512": "wlfVllrKi+evu4Hi8yoJP1dSOVXbvsy7Hs1+oz4Cykfdf6MQTPlD3LI4WKWhprn8FpU5MS3spPSbcMX5sAoJSw==",
      "files": [
        "lib/MonoAndroid10/_._",
        "lib/MonoTouch10/_._",
        "lib/net45/_._",
        "lib/win8/_._",
        "lib/wp80/_._",
        "lib/wpa81/_._",
        "lib/xamarinios10/_._",
        "lib/xamarinmac20/_._",
        "License.rtf",
        "ref/dotnet/de/System.Linq.Expressions.xml",
        "ref/dotnet/es/System.Linq.Expressions.xml",
        "ref/dotnet/fr/System.Linq.Expressions.xml",
        "ref/dotnet/it/System.Linq.Expressions.xml",
        "ref/dotnet/ja/System.Linq.Expressions.xml",
        "ref/dotnet/ko/System.Linq.Expressions.xml",
        "ref/dotnet/ru/System.Linq.Expressions.xml",
        "ref/dotnet/System.Linq.Expressions.dll",
        "ref/dotnet/System.Linq.Expressions.xml",
        "ref/dotnet/zh-hans/System.Linq.Expressions.xml",
        "ref/dotnet/zh-hant/System.Linq.Expressions.xml",
        "ref/MonoAndroid10/_._",
        "ref/MonoTouch10/_._",
        "ref/net45/_._",
        "ref/netcore50/de/System.Linq.Expressions.xml",
        "ref/netcore50/es/System.Linq.Expressions.xml",
        "ref/netcore50/fr/System.Linq.Expressions.xml",
        "ref/netcore50/it/System.Linq.Expressions.xml",
        "ref/netcore50/ja/System.Linq.Expressions.xml",
        "ref/netcore50/ko/System.Linq.Expressions.xml",
        "ref/netcore50/ru/System.Linq.Expressions.xml",
        "ref/netcore50/System.Linq.Expressions.dll",
        "ref/netcore50/System.Linq.Expressions.xml",
        "ref/netcore50/zh-hans/System.Linq.Expressions.xml",
        "ref/netcore50/zh-hant/System.Linq.Expressions.xml",
        "ref/win8/_._",
        "ref/wp80/_._",
        "ref/wpa81/_._",
        "ref/xamarinios10/_._",
        "ref/xamarinmac20/_._",
        "System.Linq.Expressions.4.0.0.nupkg",
        "System.Linq.Expressions.4.0.0.nupkg.sha512",
        "System.Linq.Expressions.nuspec"
      ]
    },
    "System.ObjectModel/4.0.10": {
      "type": "package",
      "serviceable": true,
      "sha512": "Djn1wb0vP662zxbe+c3mOhvC4vkQGicsFs1Wi0/GJJpp3Eqp+oxbJ+p2Sx3O0efYueggAI5SW+BqEoczjfr1cA==",
      "files": [
        "lib/dotnet/System.ObjectModel.dll",
        "lib/MonoAndroid10/_._",
        "lib/MonoTouch10/_._",
        "lib/net46/_._",
        "lib/xamarinios10/_._",
        "lib/xamarinmac20/_._",
        "ref/dotnet/de/System.ObjectModel.xml",
        "ref/dotnet/es/System.ObjectModel.xml",
        "ref/dotnet/fr/System.ObjectModel.xml",
        "ref/dotnet/it/System.ObjectModel.xml",
        "ref/dotnet/ja/System.ObjectModel.xml",
        "ref/dotnet/ko/System.ObjectModel.xml",
        "ref/dotnet/ru/System.ObjectModel.xml",
        "ref/dotnet/System.ObjectModel.dll",
        "ref/dotnet/System.ObjectModel.xml",
        "ref/dotnet/zh-hans/System.ObjectModel.xml",
        "ref/dotnet/zh-hant/System.ObjectModel.xml",
        "ref/MonoAndroid10/_._",
        "ref/MonoTouch10/_._",
        "ref/net46/_._",
        "ref/xamarinios10/_._",
        "ref/xamarinmac20/_._",
        "System.ObjectModel.4.0.10.nupkg",
        "System.ObjectModel.4.0.10.nupkg.sha512",
        "System.ObjectModel.nuspec"
      ]
    },
    "System.Reflection/4.0.10": {
      "type": "package",
      "sha512": "WZ+4lEE4gqGx6mrqLhSiW4oi6QLPWwdNjzhhTONmhELOrW8Cw9phlO9tltgvRUuQUqYtBiliFwhO5S5fCJElVw==",
      "files": [
        "lib/DNXCore50/System.Reflection.dll",
        "lib/MonoAndroid10/_._",
        "lib/MonoTouch10/_._",
        "lib/net46/_._",
        "lib/netcore50/System.Reflection.dll",
        "lib/xamarinios10/_._",
        "lib/xamarinmac20/_._",
        "ref/dotnet/de/System.Reflection.xml",
        "ref/dotnet/es/System.Reflection.xml",
        "ref/dotnet/fr/System.Reflection.xml",
        "ref/dotnet/it/System.Reflection.xml",
        "ref/dotnet/ja/System.Reflection.xml",
        "ref/dotnet/ko/System.Reflection.xml",
        "ref/dotnet/ru/System.Reflection.xml",
        "ref/dotnet/System.Reflection.dll",
        "ref/dotnet/System.Reflection.xml",
        "ref/dotnet/zh-hans/System.Reflection.xml",
        "ref/dotnet/zh-hant/System.Reflection.xml",
        "ref/MonoAndroid10/_._",
        "ref/MonoTouch10/_._",
        "ref/net46/_._",
        "ref/xamarinios10/_._",
        "ref/xamarinmac20/_._",
        "runtimes/win8-aot/lib/netcore50/System.Reflection.dll",
        "System.Reflection.4.0.10.nupkg",
        "System.Reflection.4.0.10.nupkg.sha512",
        "System.Reflection.nuspec"
      ]
    },
    "System.Reflection.Extensions/4.0.0": {
      "type": "package",
      "serviceable": true,
      "sha512": "dbYaZWCyFAu1TGYUqR2n+Q+1casSHPR2vVW0WVNkXpZbrd2BXcZ7cpvpu9C98CTHtNmyfMWCLpCclDqly23t6A==",
      "files": [
        "lib/DNXCore50/System.Reflection.Extensions.dll",
        "lib/net45/_._",
        "lib/netcore50/System.Reflection.Extensions.dll",
        "lib/win8/_._",
        "lib/wp80/_._",
        "lib/wpa81/_._",
        "ref/dotnet/de/System.Reflection.Extensions.xml",
        "ref/dotnet/es/System.Reflection.Extensions.xml",
        "ref/dotnet/fr/System.Reflection.Extensions.xml",
        "ref/dotnet/it/System.Reflection.Extensions.xml",
        "ref/dotnet/ja/System.Reflection.Extensions.xml",
        "ref/dotnet/ko/System.Reflection.Extensions.xml",
        "ref/dotnet/ru/System.Reflection.Extensions.xml",
        "ref/dotnet/System.Reflection.Extensions.dll",
        "ref/dotnet/System.Reflection.Extensions.xml",
        "ref/dotnet/zh-hans/System.Reflection.Extensions.xml",
        "ref/dotnet/zh-hant/System.Reflection.Extensions.xml",
        "ref/net45/_._",
        "ref/netcore50/System.Reflection.Extensions.dll",
        "ref/netcore50/System.Reflection.Extensions.xml",
        "ref/win8/_._",
        "ref/wp80/_._",
        "ref/wpa81/_._",
        "runtimes/win8-aot/lib/netcore50/System.Reflection.Extensions.dll",
        "System.Reflection.Extensions.4.0.0.nupkg",
        "System.Reflection.Extensions.4.0.0.nupkg.sha512",
        "System.Reflection.Extensions.nuspec"
      ]
    },
    "System.Reflection.Primitives/4.0.0": {
      "type": "package",
      "serviceable": true,
      "sha512": "n9S0XpKv2ruc17FSnaiX6nV47VfHTZ1wLjKZlAirUZCvDQCH71mVp+Ohabn0xXLh5pK2PKp45HCxkqu5Fxn/lA==",
      "files": [
        "lib/DNXCore50/System.Reflection.Primitives.dll",
        "lib/net45/_._",
        "lib/netcore50/System.Reflection.Primitives.dll",
        "lib/win8/_._",
        "lib/wp80/_._",
        "lib/wpa81/_._",
        "ref/dotnet/de/System.Reflection.Primitives.xml",
        "ref/dotnet/es/System.Reflection.Primitives.xml",
        "ref/dotnet/fr/System.Reflection.Primitives.xml",
        "ref/dotnet/it/System.Reflection.Primitives.xml",
        "ref/dotnet/ja/System.Reflection.Primitives.xml",
        "ref/dotnet/ko/System.Reflection.Primitives.xml",
        "ref/dotnet/ru/System.Reflection.Primitives.xml",
        "ref/dotnet/System.Reflection.Primitives.dll",
        "ref/dotnet/System.Reflection.Primitives.xml",
        "ref/dotnet/zh-hans/System.Reflection.Primitives.xml",
        "ref/dotnet/zh-hant/System.Reflection.Primitives.xml",
        "ref/net45/_._",
        "ref/netcore50/System.Reflection.Primitives.dll",
        "ref/netcore50/System.Reflection.Primitives.xml",
        "ref/win8/_._",
        "ref/wp80/_._",
        "ref/wpa81/_._",
        "runtimes/win8-aot/lib/netcore50/System.Reflection.Primitives.dll",
        "System.Reflection.Primitives.4.0.0.nupkg",
        "System.Reflection.Primitives.4.0.0.nupkg.sha512",
        "System.Reflection.Primitives.nuspec"
      ]
    },
    "System.Reflection.TypeExtensions/4.0.0": {
      "type": "package",
      "serviceable": true,
      "sha512": "YRM/msNAM86hdxPyXcuZSzmTO0RQFh7YMEPBLTY8cqXvFPYIx2x99bOyPkuU81wRYQem1c1HTkImQ2DjbOBfew==",
      "files": [
        "lib/DNXCore50/System.Reflection.TypeExtensions.dll",
        "lib/MonoAndroid10/_._",
        "lib/MonoTouch10/_._",
        "lib/net46/System.Reflection.TypeExtensions.dll",
        "lib/netcore50/System.Reflection.TypeExtensions.dll",
        "lib/xamarinios10/_._",
        "lib/xamarinmac20/_._",
        "ref/dotnet/de/System.Reflection.TypeExtensions.xml",
        "ref/dotnet/es/System.Reflection.TypeExtensions.xml",
        "ref/dotnet/fr/System.Reflection.TypeExtensions.xml",
        "ref/dotnet/it/System.Reflection.TypeExtensions.xml",
        "ref/dotnet/ja/System.Reflection.TypeExtensions.xml",
        "ref/dotnet/ko/System.Reflection.TypeExtensions.xml",
        "ref/dotnet/ru/System.Reflection.TypeExtensions.xml",
        "ref/dotnet/System.Reflection.TypeExtensions.dll",
        "ref/dotnet/System.Reflection.TypeExtensions.xml",
        "ref/dotnet/zh-hans/System.Reflection.TypeExtensions.xml",
        "ref/dotnet/zh-hant/System.Reflection.TypeExtensions.xml",
        "ref/MonoAndroid10/_._",
        "ref/MonoTouch10/_._",
        "ref/net46/System.Reflection.TypeExtensions.dll",
        "ref/xamarinios10/_._",
        "ref/xamarinmac20/_._",
        "runtimes/win8-aot/lib/netcore50/System.Reflection.TypeExtensions.dll",
        "System.Reflection.TypeExtensions.4.0.0.nupkg",
        "System.Reflection.TypeExtensions.4.0.0.nupkg.sha512",
        "System.Reflection.TypeExtensions.nuspec"
      ]
    },
    "System.Resources.ResourceManager/4.0.0": {
      "type": "package",
      "serviceable": true,
      "sha512": "qmqeZ4BJgjfU+G2JbrZt4Dk1LsMxO4t+f/9HarNY6w8pBgweO6jT+cknUH7c3qIrGvyUqraBhU45Eo6UtA0fAw==",
      "files": [
        "lib/DNXCore50/System.Resources.ResourceManager.dll",
        "lib/net45/_._",
        "lib/netcore50/System.Resources.ResourceManager.dll",
        "lib/win8/_._",
        "lib/wp80/_._",
        "lib/wpa81/_._",
        "ref/dotnet/de/System.Resources.ResourceManager.xml",
        "ref/dotnet/es/System.Resources.ResourceManager.xml",
        "ref/dotnet/fr/System.Resources.ResourceManager.xml",
        "ref/dotnet/it/System.Resources.ResourceManager.xml",
        "ref/dotnet/ja/System.Resources.ResourceManager.xml",
        "ref/dotnet/ko/System.Resources.ResourceManager.xml",
        "ref/dotnet/ru/System.Resources.ResourceManager.xml",
        "ref/dotnet/System.Resources.ResourceManager.dll",
        "ref/dotnet/System.Resources.ResourceManager.xml",
        "ref/dotnet/zh-hans/System.Resources.ResourceManager.xml",
        "ref/dotnet/zh-hant/System.Resources.ResourceManager.xml",
        "ref/net45/_._",
        "ref/netcore50/System.Resources.ResourceManager.dll",
        "ref/netcore50/System.Resources.ResourceManager.xml",
        "ref/win8/_._",
        "ref/wp80/_._",
        "ref/wpa81/_._",
        "runtimes/win8-aot/lib/netcore50/System.Resources.ResourceManager.dll",
        "System.Resources.ResourceManager.4.0.0.nupkg",
        "System.Resources.ResourceManager.4.0.0.nupkg.sha512",
        "System.Resources.ResourceManager.nuspec"
      ]
    },
    "System.Runtime/4.0.21-beta-23516": {
      "type": "package",
      "serviceable": true,
      "sha512": "ToYWwDgwR8fR9/8aaV+7PMFBfG2tEgGWED0l9OC9DQieaKEMAzXV3c6fOkK8FTd9YPjFcYnvx73tg21w6GuNDA==",
      "files": [
        "lib/DNXCore50/System.Runtime.dll",
        "lib/MonoAndroid10/_._",
        "lib/MonoTouch10/_._",
        "lib/net45/_._",
        "lib/netcore50/System.Runtime.dll",
        "lib/win8/_._",
        "lib/wp80/_._",
        "lib/wpa81/_._",
        "lib/xamarinios10/_._",
        "lib/xamarinmac20/_._",
        "ref/dotnet5.1/de/System.Runtime.xml",
        "ref/dotnet5.1/es/System.Runtime.xml",
        "ref/dotnet5.1/fr/System.Runtime.xml",
        "ref/dotnet5.1/it/System.Runtime.xml",
        "ref/dotnet5.1/ja/System.Runtime.xml",
        "ref/dotnet5.1/ko/System.Runtime.xml",
        "ref/dotnet5.1/ru/System.Runtime.xml",
        "ref/dotnet5.1/System.Runtime.dll",
        "ref/dotnet5.1/System.Runtime.xml",
        "ref/dotnet5.1/zh-hans/System.Runtime.xml",
        "ref/dotnet5.1/zh-hant/System.Runtime.xml",
        "ref/dotnet5.3/de/System.Runtime.xml",
        "ref/dotnet5.3/es/System.Runtime.xml",
        "ref/dotnet5.3/fr/System.Runtime.xml",
        "ref/dotnet5.3/it/System.Runtime.xml",
        "ref/dotnet5.3/ja/System.Runtime.xml",
        "ref/dotnet5.3/ko/System.Runtime.xml",
        "ref/dotnet5.3/ru/System.Runtime.xml",
        "ref/dotnet5.3/System.Runtime.dll",
        "ref/dotnet5.3/System.Runtime.xml",
        "ref/dotnet5.3/zh-hans/System.Runtime.xml",
        "ref/dotnet5.3/zh-hant/System.Runtime.xml",
        "ref/dotnet5.4/de/System.Runtime.xml",
        "ref/dotnet5.4/es/System.Runtime.xml",
        "ref/dotnet5.4/fr/System.Runtime.xml",
        "ref/dotnet5.4/it/System.Runtime.xml",
        "ref/dotnet5.4/ja/System.Runtime.xml",
        "ref/dotnet5.4/ko/System.Runtime.xml",
        "ref/dotnet5.4/ru/System.Runtime.xml",
        "ref/dotnet5.4/System.Runtime.dll",
        "ref/dotnet5.4/System.Runtime.xml",
        "ref/dotnet5.4/zh-hans/System.Runtime.xml",
        "ref/dotnet5.4/zh-hant/System.Runtime.xml",
        "ref/MonoAndroid10/_._",
        "ref/MonoTouch10/_._",
        "ref/net45/_._",
        "ref/netcore50/de/System.Runtime.xml",
        "ref/netcore50/es/System.Runtime.xml",
        "ref/netcore50/fr/System.Runtime.xml",
        "ref/netcore50/it/System.Runtime.xml",
        "ref/netcore50/ja/System.Runtime.xml",
        "ref/netcore50/ko/System.Runtime.xml",
        "ref/netcore50/ru/System.Runtime.xml",
        "ref/netcore50/System.Runtime.dll",
        "ref/netcore50/System.Runtime.xml",
        "ref/netcore50/zh-hans/System.Runtime.xml",
        "ref/netcore50/zh-hant/System.Runtime.xml",
        "ref/win8/_._",
        "ref/wp80/_._",
        "ref/wpa81/_._",
        "ref/xamarinios10/_._",
        "ref/xamarinmac20/_._",
        "runtimes/win8-aot/lib/netcore50/System.Runtime.dll",
        "System.Runtime.4.0.21-beta-23516.nupkg",
        "System.Runtime.4.0.21-beta-23516.nupkg.sha512",
        "System.Runtime.nuspec"
      ]
    },
    "System.Runtime.Extensions/4.0.10": {
      "type": "package",
      "serviceable": true,
      "sha512": "5dsEwf3Iml7d5OZeT20iyOjT+r+okWpN7xI2v+R4cgd3WSj4DeRPTvPFjDpacbVW4skCAZ8B9hxXJYgkCFKJ1A==",
      "files": [
        "lib/DNXCore50/System.Runtime.Extensions.dll",
        "lib/MonoAndroid10/_._",
        "lib/MonoTouch10/_._",
        "lib/net46/_._",
        "lib/netcore50/System.Runtime.Extensions.dll",
        "lib/xamarinios10/_._",
        "lib/xamarinmac20/_._",
        "ref/dotnet/de/System.Runtime.Extensions.xml",
        "ref/dotnet/es/System.Runtime.Extensions.xml",
        "ref/dotnet/fr/System.Runtime.Extensions.xml",
        "ref/dotnet/it/System.Runtime.Extensions.xml",
        "ref/dotnet/ja/System.Runtime.Extensions.xml",
        "ref/dotnet/ko/System.Runtime.Extensions.xml",
        "ref/dotnet/ru/System.Runtime.Extensions.xml",
        "ref/dotnet/System.Runtime.Extensions.dll",
        "ref/dotnet/System.Runtime.Extensions.xml",
        "ref/dotnet/zh-hans/System.Runtime.Extensions.xml",
        "ref/dotnet/zh-hant/System.Runtime.Extensions.xml",
        "ref/MonoAndroid10/_._",
        "ref/MonoTouch10/_._",
        "ref/net46/_._",
        "ref/xamarinios10/_._",
        "ref/xamarinmac20/_._",
        "runtimes/win8-aot/lib/netcore50/System.Runtime.Extensions.dll",
        "System.Runtime.Extensions.4.0.10.nupkg",
        "System.Runtime.Extensions.4.0.10.nupkg.sha512",
        "System.Runtime.Extensions.nuspec"
      ]
    },
    "System.Runtime.Handles/4.0.0": {
      "type": "package",
      "serviceable": true,
      "sha512": "638VhpRq63tVcQ6HDb3um3R/J2BtR1Sa96toHo6PcJGPXEPEsleCuqhBgX2gFCz0y0qkutANwW6VPPY5wQu1XQ==",
      "files": [
        "lib/DNXCore50/System.Runtime.Handles.dll",
        "lib/MonoAndroid10/_._",
        "lib/MonoTouch10/_._",
        "lib/net46/_._",
        "lib/netcore50/System.Runtime.Handles.dll",
        "lib/xamarinios10/_._",
        "lib/xamarinmac20/_._",
        "ref/dotnet/de/System.Runtime.Handles.xml",
        "ref/dotnet/es/System.Runtime.Handles.xml",
        "ref/dotnet/fr/System.Runtime.Handles.xml",
        "ref/dotnet/it/System.Runtime.Handles.xml",
        "ref/dotnet/ja/System.Runtime.Handles.xml",
        "ref/dotnet/ko/System.Runtime.Handles.xml",
        "ref/dotnet/ru/System.Runtime.Handles.xml",
        "ref/dotnet/System.Runtime.Handles.dll",
        "ref/dotnet/System.Runtime.Handles.xml",
        "ref/dotnet/zh-hans/System.Runtime.Handles.xml",
        "ref/dotnet/zh-hant/System.Runtime.Handles.xml",
        "ref/MonoAndroid10/_._",
        "ref/MonoTouch10/_._",
        "ref/net46/_._",
        "ref/xamarinios10/_._",
        "ref/xamarinmac20/_._",
        "runtimes/win8-aot/lib/netcore50/System.Runtime.Handles.dll",
        "System.Runtime.Handles.4.0.0.nupkg",
        "System.Runtime.Handles.4.0.0.nupkg.sha512",
        "System.Runtime.Handles.nuspec"
      ]
    },
    "System.Runtime.InteropServices/4.0.20": {
      "type": "package",
      "serviceable": true,
      "sha512": "ZgDyBYfEnjWoz/viS6VOswA6XOkDSH2DzgbpczbW50RywhnCgTl+w3JEvtAiOGyIh8cyx1NJq80jsNBSUr8Pig==",
      "files": [
        "lib/DNXCore50/System.Runtime.InteropServices.dll",
        "lib/MonoAndroid10/_._",
        "lib/MonoTouch10/_._",
        "lib/net46/_._",
        "lib/netcore50/System.Runtime.InteropServices.dll",
        "lib/xamarinios10/_._",
        "lib/xamarinmac20/_._",
        "ref/dotnet/de/System.Runtime.InteropServices.xml",
        "ref/dotnet/es/System.Runtime.InteropServices.xml",
        "ref/dotnet/fr/System.Runtime.InteropServices.xml",
        "ref/dotnet/it/System.Runtime.InteropServices.xml",
        "ref/dotnet/ja/System.Runtime.InteropServices.xml",
        "ref/dotnet/ko/System.Runtime.InteropServices.xml",
        "ref/dotnet/ru/System.Runtime.InteropServices.xml",
        "ref/dotnet/System.Runtime.InteropServices.dll",
        "ref/dotnet/System.Runtime.InteropServices.xml",
        "ref/dotnet/zh-hans/System.Runtime.InteropServices.xml",
        "ref/dotnet/zh-hant/System.Runtime.InteropServices.xml",
        "ref/MonoAndroid10/_._",
        "ref/MonoTouch10/_._",
        "ref/net46/_._",
        "ref/xamarinios10/_._",
        "ref/xamarinmac20/_._",
        "runtimes/win8-aot/lib/netcore50/System.Runtime.InteropServices.dll",
        "System.Runtime.InteropServices.4.0.20.nupkg",
        "System.Runtime.InteropServices.4.0.20.nupkg.sha512",
        "System.Runtime.InteropServices.nuspec"
      ]
    },
    "System.Text.Encoding/4.0.0": {
      "type": "package",
      "sha512": "AMxFNOXpA6Ab8swULbXuJmoT2K5w6TnV3ObF5wsmEcIHQUJghoZtDVfVHb08O2wW15mOSI1i9Wg0Dx0pY13o8g==",
      "files": [
        "lib/MonoAndroid10/_._",
        "lib/MonoTouch10/_._",
        "lib/net45/_._",
        "lib/win8/_._",
        "lib/wp80/_._",
        "lib/wpa81/_._",
        "lib/xamarinios10/_._",
        "lib/xamarinmac20/_._",
        "License.rtf",
        "ref/dotnet/de/System.Text.Encoding.xml",
        "ref/dotnet/es/System.Text.Encoding.xml",
        "ref/dotnet/fr/System.Text.Encoding.xml",
        "ref/dotnet/it/System.Text.Encoding.xml",
        "ref/dotnet/ja/System.Text.Encoding.xml",
        "ref/dotnet/ko/System.Text.Encoding.xml",
        "ref/dotnet/ru/System.Text.Encoding.xml",
        "ref/dotnet/System.Text.Encoding.dll",
        "ref/dotnet/System.Text.Encoding.xml",
        "ref/dotnet/zh-hans/System.Text.Encoding.xml",
        "ref/dotnet/zh-hant/System.Text.Encoding.xml",
        "ref/MonoAndroid10/_._",
        "ref/MonoTouch10/_._",
        "ref/net45/_._",
        "ref/netcore50/de/System.Text.Encoding.xml",
        "ref/netcore50/es/System.Text.Encoding.xml",
        "ref/netcore50/fr/System.Text.Encoding.xml",
        "ref/netcore50/it/System.Text.Encoding.xml",
        "ref/netcore50/ja/System.Text.Encoding.xml",
        "ref/netcore50/ko/System.Text.Encoding.xml",
        "ref/netcore50/ru/System.Text.Encoding.xml",
        "ref/netcore50/System.Text.Encoding.dll",
        "ref/netcore50/System.Text.Encoding.xml",
        "ref/netcore50/zh-hans/System.Text.Encoding.xml",
        "ref/netcore50/zh-hant/System.Text.Encoding.xml",
        "ref/win8/_._",
        "ref/wp80/_._",
        "ref/wpa81/_._",
        "ref/xamarinios10/_._",
        "ref/xamarinmac20/_._",
        "System.Text.Encoding.4.0.0.nupkg",
        "System.Text.Encoding.4.0.0.nupkg.sha512",
        "System.Text.Encoding.nuspec"
      ]
    },
    "System.Threading/4.0.11-beta-23516": {
      "type": "package",
      "serviceable": true,
      "sha512": "vZNXMOIwejg9jS/AkkCs43BIDrzONbT43yhU7X2217Ypi9EZN5X16DwtqBD7eMjDBsA23IRZxuugzUnV8icaxQ==",
      "files": [
        "lib/MonoAndroid10/_._",
        "lib/MonoTouch10/_._",
        "lib/net45/_._",
        "lib/win8/_._",
        "lib/wp80/_._",
        "lib/wpa81/_._",
        "lib/xamarinios10/_._",
        "lib/xamarinmac20/_._",
        "ref/dotnet5.1/de/System.Threading.xml",
        "ref/dotnet5.1/es/System.Threading.xml",
        "ref/dotnet5.1/fr/System.Threading.xml",
        "ref/dotnet5.1/it/System.Threading.xml",
        "ref/dotnet5.1/ja/System.Threading.xml",
        "ref/dotnet5.1/ko/System.Threading.xml",
        "ref/dotnet5.1/ru/System.Threading.xml",
        "ref/dotnet5.1/System.Threading.dll",
        "ref/dotnet5.1/System.Threading.xml",
        "ref/dotnet5.1/zh-hans/System.Threading.xml",
        "ref/dotnet5.1/zh-hant/System.Threading.xml",
        "ref/dotnet5.4/de/System.Threading.xml",
        "ref/dotnet5.4/es/System.Threading.xml",
        "ref/dotnet5.4/fr/System.Threading.xml",
        "ref/dotnet5.4/it/System.Threading.xml",
        "ref/dotnet5.4/ja/System.Threading.xml",
        "ref/dotnet5.4/ko/System.Threading.xml",
        "ref/dotnet5.4/ru/System.Threading.xml",
        "ref/dotnet5.4/System.Threading.dll",
        "ref/dotnet5.4/System.Threading.xml",
        "ref/dotnet5.4/zh-hans/System.Threading.xml",
        "ref/dotnet5.4/zh-hant/System.Threading.xml",
        "ref/MonoAndroid10/_._",
        "ref/MonoTouch10/_._",
        "ref/net45/_._",
        "ref/netcore50/de/System.Threading.xml",
        "ref/netcore50/es/System.Threading.xml",
        "ref/netcore50/fr/System.Threading.xml",
        "ref/netcore50/it/System.Threading.xml",
        "ref/netcore50/ja/System.Threading.xml",
        "ref/netcore50/ko/System.Threading.xml",
        "ref/netcore50/ru/System.Threading.xml",
        "ref/netcore50/System.Threading.dll",
        "ref/netcore50/System.Threading.xml",
        "ref/netcore50/zh-hans/System.Threading.xml",
        "ref/netcore50/zh-hant/System.Threading.xml",
        "ref/win8/_._",
        "ref/wp80/_._",
        "ref/wpa81/_._",
        "ref/xamarinios10/_._",
        "ref/xamarinmac20/_._",
        "runtime.json",
        "System.Threading.4.0.11-beta-23516.nupkg",
        "System.Threading.4.0.11-beta-23516.nupkg.sha512",
        "System.Threading.nuspec"
      ]
    },
    "System.Threading.Tasks/4.0.0": {
      "type": "package",
      "sha512": "dA3y1B6Pc8mNt9obhEWWGGpvEakS51+nafXpmM/Z8IF847GErLXGTjdfA+AYEKszfFbH7SVLWUklXhYeeSQ1lw==",
      "files": [
        "lib/MonoAndroid10/_._",
        "lib/MonoTouch10/_._",
        "lib/net45/_._",
        "lib/win8/_._",
        "lib/wp80/_._",
        "lib/wpa81/_._",
        "lib/xamarinios10/_._",
        "lib/xamarinmac20/_._",
        "License.rtf",
        "ref/dotnet/de/System.Threading.Tasks.xml",
        "ref/dotnet/es/System.Threading.Tasks.xml",
        "ref/dotnet/fr/System.Threading.Tasks.xml",
        "ref/dotnet/it/System.Threading.Tasks.xml",
        "ref/dotnet/ja/System.Threading.Tasks.xml",
        "ref/dotnet/ko/System.Threading.Tasks.xml",
        "ref/dotnet/ru/System.Threading.Tasks.xml",
        "ref/dotnet/System.Threading.Tasks.dll",
        "ref/dotnet/System.Threading.Tasks.xml",
        "ref/dotnet/zh-hans/System.Threading.Tasks.xml",
        "ref/dotnet/zh-hant/System.Threading.Tasks.xml",
        "ref/MonoAndroid10/_._",
        "ref/MonoTouch10/_._",
        "ref/net45/_._",
        "ref/netcore50/de/System.Threading.Tasks.xml",
        "ref/netcore50/es/System.Threading.Tasks.xml",
        "ref/netcore50/fr/System.Threading.Tasks.xml",
        "ref/netcore50/it/System.Threading.Tasks.xml",
        "ref/netcore50/ja/System.Threading.Tasks.xml",
        "ref/netcore50/ko/System.Threading.Tasks.xml",
        "ref/netcore50/ru/System.Threading.Tasks.xml",
        "ref/netcore50/System.Threading.Tasks.dll",
        "ref/netcore50/System.Threading.Tasks.xml",
        "ref/netcore50/zh-hans/System.Threading.Tasks.xml",
        "ref/netcore50/zh-hant/System.Threading.Tasks.xml",
        "ref/win8/_._",
        "ref/wp80/_._",
        "ref/wpa81/_._",
        "ref/xamarinios10/_._",
        "ref/xamarinmac20/_._",
        "System.Threading.Tasks.4.0.0.nupkg",
        "System.Threading.Tasks.4.0.0.nupkg.sha512",
        "System.Threading.Tasks.nuspec"
      ]
    }
  },
  "projectFileDependencyGroups": {
    "": [
      "Sentimetro.IRepository >= 1.0.0-*"
    ],
    ".NETFramework,Version=v4.5.1": [],
    ".NETPlatform,Version=v5.4": [
      "Microsoft.CSharp >= 4.0.1-beta-23516",
      "System.Collections >= 4.0.11-beta-23516",
      "System.Linq >= 4.0.1-beta-23516",
      "System.Runtime >= 4.0.21-beta-23516",
      "System.Threading >= 4.0.11-beta-23516"
    ]
  }
}